<svg width="62" height="63" viewBox="0 0 62 63" fill="none" xmlns="http://www.w3.org/2000/svg">
<path fill-rule="evenodd" clip-rule="evenodd" d="M13.5689 7.3779C14.402 7.38445 15.233 7.46311 16.0527 7.61299C16.4486 7.61299 16.8266 7.77576 17.2045 7.88427C18.5229 5.67968 20.3424 3.8204 22.5139 2.45885C25.0622 0.852209 28.0096 0 31.018 0C34.0263 0 36.9738 0.852209 39.522 2.45885C41.6936 3.8204 43.5131 5.67968 44.8314 7.88427C45.2094 7.77576 45.5873 7.68533 45.9833 7.61299C46.8027 7.46138 47.6339 7.38271 48.467 7.3779C51.7961 7.38271 55.007 8.61858 57.4873 10.8498C59.9676 13.0811 61.5438 16.1516 61.9153 19.4759C62.2868 22.8001 61.4277 26.1454 59.5018 28.8739C57.5758 31.6024 54.7177 33.5232 51.4727 34.2699V48.3398C51.4724 48.8643 51.3689 49.3836 51.1681 49.8678C50.9673 50.352 50.6732 50.7915 50.3028 51.161C49.9375 51.5365 49.5005 51.8342 49.0181 52.0361C48.5357 52.2381 48.0177 52.3403 47.4951 52.3365H31.5129L21.614 62.2469C21.2674 62.6141 20.8136 62.8611 20.3182 62.9523C19.8346 63.0487 19.3334 62.9983 18.8783 62.8076C18.4169 62.6128 18.0226 62.2862 17.7442 61.8682C17.4659 61.4503 17.3158 60.9594 17.3125 60.4566V52.3365H14.5048C13.9822 52.3403 13.4643 52.2381 12.9818 52.0361C12.4994 51.8342 12.0625 51.5365 11.6972 51.161C11.3267 50.7915 11.0326 50.352 10.8319 49.8678C10.6311 49.3836 10.5276 48.8643 10.5273 48.3398V34.2699C7.2807 33.5228 4.42156 31.6007 2.49562 28.8702C0.569669 26.1398 -0.288204 22.7924 0.0857079 19.4669C0.45962 16.1414 2.03914 13.0706 4.5228 10.8408C7.00647 8.61102 10.2203 7.37828 13.551 7.3779H13.5689ZM15.5307 10.5246C14.8831 10.4082 14.2268 10.3477 13.5689 10.3438C10.8534 10.3122 8.22944 11.3291 6.23818 13.1846C4.24692 15.04 3.0403 17.5926 2.86716 20.3159C2.69402 23.0391 3.5676 25.7252 5.30769 27.8203C7.04778 29.9153 9.52167 31.2593 12.2191 31.5753L13.497 31.738V48.3398C13.5027 48.6168 13.6119 48.8815 13.8029 49.0813C14.0035 49.2682 14.2673 49.3716 14.5408 49.3706H20.3002V59.4257L30.2891 49.3706H47.4951C47.6312 49.3757 47.7669 49.3525 47.8936 49.3025C48.0204 49.2525 48.1354 49.1767 48.2317 49.08C48.328 48.9832 48.4034 48.8676 48.4532 48.7402C48.503 48.6128 48.5261 48.4765 48.521 48.3398V31.738L49.8169 31.5753C52.5143 31.2593 54.9882 29.9153 56.7283 27.8203C58.4683 25.7252 59.3419 23.0391 59.1688 20.3159C58.9957 17.5926 57.789 15.04 55.7978 13.1846C53.8065 11.3291 51.1825 10.3122 48.467 10.3438C47.8091 10.3469 47.1527 10.4074 46.5052 10.5246C45.8928 10.6529 45.2911 10.8282 44.7054 11.0491L43.4276 11.5555L42.8337 10.3257C41.7753 8.09254 40.1066 6.20794 38.0225 4.89184C35.9383 3.57574 33.5245 2.88244 31.063 2.89288C28.6124 2.88333 26.2094 3.57319 24.1337 4.88219C22.0485 6.20218 20.3716 8.08128 19.2923 10.3076L18.7164 11.5555L17.4385 11.0491C16.8169 10.8253 16.1791 10.6499 15.5307 10.5246Z" fill="#06C160"/>
</svg>
