<svg width="101" height="42" viewBox="0 0 101 42" fill="none" xmlns="http://www.w3.org/2000/svg">
<path fill-rule="evenodd" clip-rule="evenodd" d="M3.50592 18.2479V3.21266H11.0446V18.2479H14.4779V0H0.0726774V18.2479H3.50592ZM23.4879 18.6151C24.9109 18.6737 26.3186 18.3008 27.5302 17.5445C28.7418 16.7882 29.7019 15.683 30.2871 14.3709C30.8722 13.0588 31.0557 11.5999 30.814 10.1816C30.5722 8.76326 29.9163 7.45043 28.9304 6.41185C27.9446 5.37326 26.6739 4.65638 25.2817 4.35336C23.8895 4.05033 22.4395 4.17502 21.118 4.71138C19.7965 5.24774 18.6639 6.17126 17.8659 7.36324C17.0678 8.55521 16.6408 9.96116 16.6396 11.4004C16.576 12.3394 16.7072 13.2816 17.025 14.1664C17.3427 15.0513 17.8399 15.8592 18.4847 16.5385C19.1295 17.2178 19.9077 17.7534 20.7693 18.111C21.6309 18.4686 22.5568 18.6403 23.4879 18.6151ZM23.4879 15.4024C21.4352 15.4024 20.2545 13.9521 20.2545 11.4004C20.2545 8.84858 21.3989 7.39829 23.4879 7.39829C25.577 7.39829 26.7396 8.84858 26.7396 11.4004C26.7396 13.9521 25.5406 15.4024 23.4879 15.4024ZM38.7651 18.2479C41.8714 18.2479 43.5426 16.9078 43.5426 14.4294C43.61 13.7091 43.4276 12.9875 43.0266 12.3881C42.6257 11.7887 42.0311 11.3487 41.3446 11.1433C41.9203 10.9282 42.4101 10.5277 42.7383 10.0036C43.0666 9.4794 43.2152 8.86069 43.1612 8.24278C43.1612 5.87459 41.3446 4.57117 38.3291 4.57117H32.3164V18.2479H38.7651ZM38.311 7.23308C39.2556 7.23308 39.9095 7.60024 39.9095 8.60993C39.9095 9.61963 39.2556 9.96842 38.311 9.96842H35.4227V7.23308H38.311ZM35.4227 15.6043V12.5753H38.7651C38.9713 12.5474 39.1811 12.5664 39.3792 12.6308C39.5772 12.6952 39.7585 12.8035 39.9099 12.9477C40.0613 13.0919 40.179 13.2685 40.2543 13.4644C40.3297 13.6604 40.3608 13.8709 40.3455 14.0806C40.358 14.2912 40.3242 14.502 40.2467 14.6979C40.1692 14.8938 40.0498 15.07 39.8971 15.2138C39.7443 15.3577 39.562 15.4656 39.3632 15.5299C39.1644 15.5943 38.9539 15.6134 38.7469 15.586L35.4227 15.6043ZM64.3602 24.3428V16.559C64.7752 17.2353 65.365 17.7843 66.0661 18.1467C66.7672 18.509 67.553 18.671 68.3385 18.6151C71.8081 18.6151 74.4602 15.6594 74.4602 11.4004C74.4602 7.14128 71.8081 4.18563 68.3385 4.18563C67.553 4.12972 66.7672 4.29169 66.0661 4.65404C65.365 5.0164 64.7752 5.56538 64.3602 6.24174V4.5528H60.9451V24.3244L64.3602 24.3428ZM67.5937 15.4208C65.4683 15.4208 64.3602 13.8787 64.3602 11.4187C64.3602 8.95873 65.3593 7.41666 67.5937 7.41666C69.828 7.41666 70.8453 8.99545 70.8453 11.4187C70.8453 13.842 69.7735 15.4208 67.5937 15.4208ZM3.41512 41.5994V36.3673H8.97374V41.5994H12.3889V27.9226H8.97374V33.173H3.41512V27.9226H0V41.5994H3.41512ZM41.7806 41.9849C43.1694 42.0851 44.5484 41.6846 45.6725 40.8544C46.7966 40.0241 47.5932 38.8181 47.9205 37.4504L44.4327 36.7161C44.322 37.3304 43.9893 37.8811 43.4991 38.2611C43.0089 38.6412 42.3963 38.8233 41.7806 38.7722C39.7097 38.7722 38.6561 37.1384 38.6561 34.7702C38.6561 32.402 39.6189 30.7681 41.7806 30.7681C42.4178 30.7774 43.0333 31.0035 43.5277 31.4099C44.0221 31.8163 44.3666 32.3792 44.5054 33.0078L47.9205 32.1082C47.6219 30.7294 46.839 29.5065 45.7168 28.6661C44.5947 27.8256 43.2092 27.4245 41.8169 27.5371C39.9834 27.6305 38.2556 28.4324 36.9906 29.7769C35.7256 31.1214 35.0202 32.9057 35.0202 34.761C35.0202 36.6163 35.7256 38.4006 36.9906 39.7451C38.2556 41.0896 39.9834 41.8914 41.8169 41.9849H41.7806ZM56.204 41.5994C59.2921 41.5994 60.9815 40.2592 60.9815 37.7992C61.0488 37.0789 60.8664 36.3573 60.4655 35.7579C60.0645 35.1585 59.4699 34.7185 58.7834 34.5132C59.3574 34.2955 59.8454 33.8944 60.1733 33.3709C60.5011 32.8474 60.6509 32.23 60.6 31.6126C60.6 29.2444 58.8742 27.941 55.7679 27.941H49.6644V41.6177L56.204 41.5994ZM55.7498 30.5845C56.6944 30.5845 57.3484 30.9333 57.3484 31.943C57.3484 32.9527 56.6944 33.3199 55.7498 33.3199H52.8615V30.5845H55.7498ZM52.8615 38.9374V35.9267H56.204C56.599 35.9267 56.9779 36.0853 57.2573 36.3676C57.5366 36.6499 57.6935 37.0328 57.6935 37.4321C57.6935 37.8313 57.5366 38.2142 57.2573 38.4965C56.9779 38.7788 56.599 38.9374 56.204 38.9374H52.8615ZM65.5773 41.5994L67.9206 37.0833H70.2458V41.5994H73.6428V27.9226H67.4665C63.8334 27.9226 62.3257 30.0521 62.3257 32.5121C62.2877 33.3444 62.4931 34.1696 62.9163 34.8846C63.3395 35.5996 63.9618 36.1727 64.7054 36.5325L62.0895 41.5994H65.5773ZM70.2458 30.6763V34.3479H68.0115C66.3766 34.3479 65.7408 33.5402 65.7408 32.5121C65.7408 31.4841 66.3766 30.6763 68.0115 30.6763H70.2458ZM81.2542 41.9849C84.7783 41.9849 86.8673 40.1491 86.8673 37.4872C86.9178 36.8581 86.769 36.2291 86.4425 35.6912C86.1159 35.1533 85.6285 34.7343 85.0507 34.4948C85.5411 34.2564 85.947 33.8714 86.2135 33.3919C86.48 32.9125 86.594 32.3617 86.5403 31.8145C86.5403 29.0975 84.5784 27.5371 81.236 27.5371C79.9521 27.3764 78.6549 27.7022 77.5948 28.4515C76.5347 29.2007 75.7868 30.3204 75.4957 31.5942L78.6746 32.1633C78.9289 30.9517 79.8554 30.5111 81.1815 30.5111C82.5075 30.5111 83.2705 30.97 83.2705 31.9614C83.2705 32.9527 82.7618 33.1914 81.5629 33.1914H79.6374V35.8716H81.5811C82.8345 35.8716 83.6338 36.349 83.6338 37.3954C83.6338 38.4418 82.7255 39.0292 81.2542 39.0292C80.607 39.1187 79.9509 38.9476 79.4276 38.5526C78.9042 38.1576 78.5555 37.5706 78.4566 36.9181L75.2958 37.4872C75.7318 40.351 77.8572 41.9849 81.3268 41.9849H81.2542ZM97.6031 27.9226L92.335 36.3306V27.9226H88.9199V41.5994H92.335L97.6031 33.1914V41.5994H101V27.9226H97.6031ZM54.7507 4.5528V6.24174C54.3357 5.56538 53.7459 5.0164 53.0448 4.65404C52.3437 4.29169 51.558 4.12972 50.7724 4.18563C47.3028 4.18563 44.6507 7.14128 44.6507 11.4004C44.6507 15.6594 47.3028 18.6151 50.7724 18.6151C51.558 18.671 52.3437 18.509 53.0448 18.1467C53.7459 17.7843 54.3357 17.2353 54.7507 16.559V18.2479H58.1658V4.5528H54.7507ZM51.4809 7.39829C53.6244 7.39829 54.7144 8.94037 54.7144 11.4004C54.7144 13.8603 53.7153 15.4024 51.4809 15.4024C49.2466 15.4024 48.2293 13.842 48.2293 11.4004C48.2293 8.95873 49.3011 7.39829 51.4809 7.39829ZM24.5961 27.9043V29.5932C24.1864 28.9106 23.5982 28.3556 22.8961 27.9895C22.1941 27.6235 21.4057 27.4605 20.6178 27.5187C17.1482 27.5187 14.4961 30.4927 14.4961 34.7518C14.4961 39.0109 17.1482 41.9665 20.6178 41.9665C21.4033 42.0224 22.189 41.8605 22.8901 41.4981C23.5912 41.1358 24.1811 40.5868 24.5961 39.9104V41.581H28.0111V27.9043H24.5961ZM21.3626 30.7497C23.488 30.7497 24.5961 32.2918 24.5961 34.7518C24.5961 37.2118 23.597 38.7539 21.3626 38.7539C19.1283 38.7539 18.111 37.1751 18.111 34.7518C18.111 32.3285 19.1827 30.7497 21.3626 30.7497Z" fill="#111111"/>
</svg>
